<svg width="100" height="100" viewBox="0 0 100 100" fill="none" xmlns="http://www.w3.org/2000/svg">
<circle cx="50" cy="50" r="50" fill="#FFA41B"/>
<path d="M64.7435 37.9145C64.7431 33.9587 63.1763 30.165 60.3878 27.368C57.5998 24.571 53.8178 22.9996 49.8747 23C45.9316 23 42.1501 24.5718 39.3621 27.3688C36.5741 30.1663 35.0078 33.9605 35.0078 37.9163C35.0078 41.8722 36.5746 45.6659 39.3626 48.4628C42.1511 51.2598 45.9326 52.8312 49.8757 52.8312C53.8178 52.8274 57.5975 51.2542 60.3846 48.4577C63.1721 45.6612 64.7398 41.8693 64.7437 37.9144L64.7435 37.9145ZM49.8754 51.2775C46.3427 51.2775 42.9546 49.8696 40.4566 47.3635C37.9585 44.8574 36.5552 41.4585 36.5552 37.9143C36.5552 34.3701 37.9585 30.9711 40.4566 28.465C42.9546 25.9589 46.3427 24.551 49.8754 24.551C53.4082 24.551 56.7963 25.9589 59.2943 28.465C61.7923 30.9711 63.1957 34.3701 63.1957 37.9143C63.1915 41.457 61.7867 44.8537 59.2896 47.3588C56.7925 49.864 53.4068 51.2733 49.8754 51.2775Z" fill="white"/>
<path d="M49.8761 26.9951C46.9888 26.9951 44.22 28.1455 42.1787 30.1934C40.137 32.2418 38.9902 35.0195 38.9902 37.9161C38.9902 40.8123 40.1369 43.59 42.1787 45.6384C44.22 47.6862 46.9888 48.8372 49.8761 48.8372C52.7634 48.8372 55.5322 47.6863 57.5735 45.6384C59.6153 43.59 60.762 40.8123 60.762 37.9161C60.7587 35.0205 59.6111 32.2446 57.5703 30.1972C55.5293 28.1496 52.7624 26.9979 49.8761 26.9951ZM49.8761 47.2814C47.3997 47.2814 45.0248 46.2946 43.2738 44.538C41.5228 42.7813 40.5392 40.3984 40.5392 37.9143C40.5392 35.4299 41.5228 33.0473 43.2738 31.2907C45.0248 29.5341 47.3995 28.5472 49.8761 28.5472C52.3527 28.5472 54.7275 29.5341 56.4785 31.2907C58.2294 33.0473 59.2131 35.4298 59.2131 37.9143C59.2103 40.3975 58.2252 42.7786 56.4752 44.5341C54.7247 46.2903 52.3517 47.2781 49.8762 47.2813L49.8761 47.2814Z" fill="white"/>
<path d="M42.0626 55.4717L34.6341 49.1389H34.6336C33.5436 48.2071 32.092 47.8198 30.6848 48.0863L28.206 34.8147C28.0069 33.7555 27.4457 32.7992 26.6185 32.1107C25.7918 31.4227 24.7515 31.0454 23.6769 31.0449C22.9673 31.0454 22.2871 31.3283 21.7851 31.8316C21.2834 32.3349 21.0009 33.0172 21 33.7291V52.3889C21.0033 53.942 21.5096 55.4524 22.4427 56.6916L31.1696 68.2545L31.1701 77.2231C31.1701 77.6516 31.5163 77.9994 31.9439 77.9994C32.3711 77.9994 32.7177 77.6516 32.7177 77.2231V67.9994C32.7177 67.8297 32.6625 67.6648 32.5604 67.5295L23.6745 55.7546C22.9452 54.7846 22.5498 53.6037 22.5475 52.3889V33.7291C22.5484 33.1041 23.0539 32.5975 23.6769 32.5975C24.3898 32.5975 25.0807 32.8475 25.6297 33.3038C26.1786 33.7601 26.552 34.3945 26.6845 35.0975L29.2116 48.6265C28.8795 48.8159 28.5713 49.0447 28.2935 49.3079C27.7815 49.7971 27.4616 50.454 27.3918 51.1599C27.3216 51.8657 27.5061 52.573 27.9117 53.1538L35.1619 63.4498H35.1623C35.4087 63.8004 35.8916 63.8836 36.2411 63.6364C36.59 63.3887 36.6734 62.9043 36.4266 62.5542L29.1802 52.2567C28.783 51.688 28.8603 50.9141 29.361 50.4357C29.9339 49.8915 30.6862 49.579 31.4745 49.5578C32.2628 49.5367 33.0309 49.8083 33.6315 50.321L41.06 56.6538C42.1631 57.5969 42.9983 58.815 43.4821 60.1857C43.9655 61.556 44.0803 63.0302 43.8143 64.4591L43.2582 67.421C43.2503 67.4685 43.2456 67.5164 43.2451 67.5644V77.2222C43.2451 77.6508 43.5918 77.9985 44.0189 77.9985C44.4466 77.9985 44.7928 77.6508 44.7928 77.2222V67.6367L45.3356 64.742C45.6514 63.0442 45.5146 61.2932 44.9398 59.6654C44.3651 58.0376 43.3726 56.5906 42.0624 55.4709L42.0626 55.4717Z" fill="white"/>
<path d="M76.0763 31.0449C75.0017 31.0454 73.9613 31.4227 73.1346 32.1107C72.3074 32.7992 71.7463 33.7555 71.5472 34.8147L69.0674 48.0863C67.6603 47.8208 66.2092 48.2075 65.1196 49.1389L57.6911 55.4707L57.6906 55.4702C56.3786 56.5901 55.3847 58.0379 54.809 59.6667C54.2333 61.2954 54.096 63.0477 54.4118 64.7466L54.9532 67.6413L54.9537 77.223C54.9706 77.6398 55.3125 77.9688 55.728 77.9688C56.1439 77.9688 56.4854 77.6398 56.5027 77.223V67.5651C56.5023 67.5172 56.4976 67.4693 56.4896 67.4218L55.9336 64.4599H55.9331C55.6671 63.0308 55.7814 61.5562 56.2648 60.186C56.7487 58.8156 57.5843 57.5971 58.6874 56.6545L66.1159 50.3228L66.1164 50.3232C66.7164 49.8096 67.4846 49.537 68.2729 49.5577C69.0613 49.5789 69.8144 49.8918 70.3864 50.4365C70.8876 50.9149 70.9644 51.6888 70.5677 52.2575L63.3176 62.555H63.3171C63.0707 62.9051 63.1536 63.3896 63.5031 63.6372C63.852 63.8844 64.335 63.8012 64.5818 63.4506L71.8319 53.1546C72.2366 52.5752 72.4207 51.8693 72.3519 51.1654C72.283 50.461 71.965 49.8049 71.4553 49.3153C71.1776 49.0522 70.8693 48.8233 70.5372 48.6339L73.0685 35.1049C73.2011 34.4019 73.5744 33.7675 74.1234 33.3112C74.6723 32.8549 75.3633 32.6049 76.0762 32.6049C76.6991 32.6049 77.2046 33.1115 77.2055 33.7365V52.3891C77.2032 53.6039 76.8078 54.7848 76.0785 55.7548L67.1889 67.5245C67.0882 67.6603 67.0334 67.8248 67.033 67.9944V77.2233C67.033 77.6519 67.3791 77.9996 67.8068 77.9996C68.234 77.9996 68.5806 77.6519 68.5806 77.2233V68.2548L77.3076 56.6918C78.2406 55.4521 78.747 53.9423 78.7502 52.3891V33.7293C78.7498 33.0178 78.4678 32.3355 77.9661 31.8326C77.4649 31.3293 76.7852 31.046 76.076 31.045L76.0763 31.0449Z" fill="white"/>
<path fill-rule="evenodd" clip-rule="evenodd" d="M51.1484 33.4227C51.3875 33.7574 51.5669 34.128 51.6745 34.5344H52.9058L52.4277 35.969L51.7462 35.9691C51.543 37.4515 50.5148 38.6112 49.0563 38.8144L52.1048 43.1541H50.3594L47.3228 38.8503V37.4157H48.5183C49.391 37.4157 50.1323 36.806 50.3115 35.9811L47 35.981L47.4782 34.5464H50.2039C49.929 33.8889 49.2714 33.4347 48.5182 33.4347L47 33.4346L47.4782 32H52.9057L52.4276 33.4346H51.1484L51.1484 33.4227Z" fill="white"/>
</svg>
