<svg width="24" height="25" viewBox="0 0 24 25" fill="none" xmlns="http://www.w3.org/2000/svg">
<path d="M12 4.625C14.1736 4.625 14.4448 4.633 15.2976 4.673C16.1496 4.713 16.7296 4.8466 17.24 5.045C17.768 5.2482 18.2128 5.5234 18.6576 5.9674C19.0644 6.36732 19.3792 6.85107 19.58 7.385C19.7776 7.8946 19.912 8.4754 19.952 9.3274C19.9896 10.1802 20 10.4514 20 12.625C20 14.7986 19.992 15.0698 19.952 15.9226C19.912 16.7746 19.7776 17.3546 19.58 17.865C19.3797 18.3992 19.0649 18.8831 18.6576 19.2826C18.2576 19.6893 17.7738 20.004 17.24 20.205C16.7304 20.4026 16.1496 20.537 15.2976 20.577C14.4448 20.6146 14.1736 20.625 12 20.625C9.8264 20.625 9.5552 20.617 8.7024 20.577C7.8504 20.537 7.2704 20.4026 6.76 20.205C6.22586 20.0046 5.74202 19.6898 5.3424 19.2826C4.93553 18.8827 4.62075 18.399 4.42 17.865C4.2216 17.3554 4.088 16.7746 4.048 15.9226C4.0104 15.0698 4 14.7986 4 12.625C4 10.4514 4.008 10.1802 4.048 9.3274C4.088 8.4746 4.2216 7.8954 4.42 7.385C4.62019 6.85074 4.93504 6.36686 5.3424 5.9674C5.74214 5.56038 6.22594 5.24558 6.76 5.045C7.2704 4.8466 7.8496 4.713 8.7024 4.673C9.5552 4.6354 9.8264 4.625 12 4.625ZM12 8.625C10.9391 8.625 9.92172 9.04643 9.17157 9.79657C8.42143 10.5467 8 11.5641 8 12.625C8 13.6859 8.42143 14.7033 9.17157 15.4534C9.92172 16.2036 10.9391 16.625 12 16.625C13.0609 16.625 14.0783 16.2036 14.8284 15.4534C15.5786 14.7033 16 13.6859 16 12.625C16 11.5641 15.5786 10.5467 14.8284 9.79657C14.0783 9.04643 13.0609 8.625 12 8.625ZM17.2 8.425C17.2 8.15978 17.0946 7.90543 16.9071 7.71789C16.7196 7.53036 16.4652 7.425 16.2 7.425C15.9348 7.425 15.6804 7.53036 15.4929 7.71789C15.3054 7.90543 15.2 8.15978 15.2 8.425C15.2 8.69022 15.3054 8.94457 15.4929 9.13211C15.6804 9.31964 15.9348 9.425 16.2 9.425C16.4652 9.425 16.7196 9.31964 16.9071 9.13211C17.0946 8.94457 17.2 8.69022 17.2 8.425ZM12 10.225C12.6365 10.225 13.247 10.4779 13.6971 10.9279C14.1471 11.378 14.4 11.9885 14.4 12.625C14.4 13.2615 14.1471 13.872 13.6971 14.3221C13.247 14.7721 12.6365 15.025 12 15.025C11.3635 15.025 10.753 14.7721 10.3029 14.3221C9.85286 13.872 9.6 13.2615 9.6 12.625C9.6 11.9885 9.85286 11.378 10.3029 10.9279C10.753 10.4779 11.3635 10.225 12 10.225Z" fill="white"/>
</svg>
